will_data
…
# Show the Summary stats for each variable,including the 95% CI
will_summary <- will_data %>%
  summarise(avg = mean(value), sd = sd(value), n = n()) %>%
  mutate(delta = CI(sd, 0.95), lo_95 = avg - delta, hi_95 = avg + delta) %>%
  select(-delta) %>%
  arrange(var, level)

`summarise()` has grouped output by 'cushion', 'var'. You can override using
the `.groups` argument.

print(will_summary)

# A tibble: 40 × 8
# Groups:   cushion, var [20]
   cushion    var        level    avg       sd     n  lo_95  hi_95
   <chr>      <chr>      <chr>  <dbl>    <dbl> <int>  <dbl>  <dbl>
 1 W798553-01 hysteresis H_250 0.102  0.00429      3 0.0941 0.111 
 2 W798553-02 hysteresis H_250 0.101  0.00390      3 0.0930 0.108 
 3 W798553-03 hysteresis H_250 0.0960 0.000752     3 0.0946 0.0975
 4 W819482-01 hysteresis H_250 0.0740 0.00219      3 0.0697 0.0783
 5 W819482-02 hysteresis H_250 0.0760 0.00257      3 0.0710 0.0810
 6 W819482-03 hysteresis H_250 0.0714 0.00212      3 0.0672 0.0756
 7 W884993-01 hysteresis H_250 0.0686 0.00386      3 0.0611 0.0762
 8 W884993-02 hysteresis H_250 0.0728 0.00587      3 0.0613 0.0843
 9 W896204-01 hysteresis H_250 0.0887 0.00141      3 0.0859 0.0914
10 W896204-02 hysteresis H_250 0.0790 0.00177      3 0.0755 0.0825
# ℹ 30 more rows
…
